<?xml version="1.0" encoding="utf-8"?>
<!-- Generator: Adobe Illustrator 19.2.0, SVG Export Plug-In . SVG Version: 6.00 Build 0)  -->
<svg version="1.1" id="_x31_607_Icons" xmlns="http://www.w3.org/2000/svg" xmlns:xlink="http://www.w3.org/1999/xlink" x="0px"
	 y="0px" viewBox="576.5 65.5 15 15" style="enable-background:new 576.5 65.5 15 15;" xml:space="preserve">
<style type="text/css">
	.st0{fill:#1CF9C8;}
</style>
<g transform="translate(576 64)">
	<path class="st0" d="M11.5,10.5c-1,1-1,2-2,2s-2-1-3-2s-2-2-2-3s1-1,2-2s-2-4-3-4s-3,3-3,3c0,2,2.1,6.1,4,8c1.9,1.9,6,4,8,4
		c0,0,3-2,3-3S12.5,9.5,11.5,10.5z"/>
</g>
</svg>
